<svg version="1.1" xmlns="http://www.w3.org/2000/svg" xmlns:xlink="http://www.w3.org/1999/xlink"
	width="200" height="193"
	viewBox="1228 129 200 193"
	preserveAspectRatio="none"
	class="map">
		<g id="BIPoC">
			<g>
				<g>
					<defs>
						<rect id="SVGID_91_" x="1228" y="129" width="200" height="193"/>
					</defs>
					<clipPath id="SVGID_92_">
						<use xlink:href="#SVGID_91_"  style="overflow:visible;"/>
					</clipPath>
					<g class="st129">
						<defs>
							<rect id="SVGID_93_" x="1228" y="129" width="200" height="193"/>
						</defs>
						<clipPath id="SVGID_94_">
							<use xlink:href="#SVGID_93_"  style="overflow:visible;"/>
						</clipPath>
						<g class="st130">
							<defs>
								<rect id="SVGID_95_" x="1240.88" y="139.83" width="175.59" height="171.54"/>
							</defs>
							<clipPath id="SVGID_96_">
								<use xlink:href="#SVGID_95_"  style="overflow:visible;"/>
							</clipPath>
							<g class="st131">
								<defs>
									<rect id="SVGID_97_" x="1240.88" y="139.83" width="175.59" height="171.54"/>
								</defs>
								<clipPath id="SVGID_98_">
									<use xlink:href="#SVGID_97_"  style="overflow:visible;"/>
								</clipPath>
								<path class="st132" d="M1403,250.81c3.11-1.83,10.64-6.26,13.23-7.72c0.08,0.02,0.16,0.04,0.23,0.05l-1.1,16.99l-13.53,8.16
									l-0.03,0l1.15-17.45C1402.97,250.83,1402.99,250.82,1403,250.81"/>
								<path class="st133" d="M1402.97,250.81l-56.43-12.68l0.01-0.39c3.42-1.36,9.62-4.09,15.69-6.81
									c7.71,1.76,46.16,10.49,54.01,12.16c-2.59,1.46-10.12,5.88-13.23,7.72L1402.97,250.81z"/>
								<path class="st134" d="M1377.03,188.99c0-0.02,0-0.03,0-0.05c3.86-1.47,9.69-3.7,15.17-5.79c5.33-2.03,10.34-3.93,12.9-4.88
									l0.13,0.02l-1,17.28l-12.94,5.66l-15.02,6.57C1376.45,203.5,1376.75,196.2,1377.03,188.99"/>
								<path class="st135" d="M1392.45,176.63l12.66,1.63c-2.55,0.96-7.56,2.85-12.9,4.88L1392.45,176.63z"/>
								<polygon class="st136" points="1404.23,195.56 1403.23,212.91 1390.24,219 1391.29,201.22 							"/>
								<polygon class="st133" points="1402.96,250.84 1401.81,268.29 1360.87,258.91 1346.24,255.55 1346.53,238.13 1402.97,250.81
																"/>
								<polygon class="st137" points="1377.77,170.36 1350.06,165.74 1365.4,161.63 1392.84,165.65 1392.84,165.68 1377.78,170.36
																"/>
								<path class="st136" d="M1392.45,176.63l-0.23,6.52c-5.48,2.09-11.31,4.31-15.17,5.79c0.3-7.42,0.59-14.74,0.74-18.57l0.01,0
									l15.05-4.68L1392.45,176.63z"/>
								<polygon class="st136" points="1349.01,202.35 1376.26,207.8 1376.28,207.81 1376.28,207.79 1391.29,201.22 1390.24,219
									1390.12,219.06 1377.12,216.99 1362.26,214.63 1337.12,210.63 1337.75,192.64 1349.58,194.12 							"/>
								<path class="st137" d="M1350.04,165.75l0.03-0.01l27.71,4.62v0.01c-0.15,3.83-0.44,11.15-0.74,18.57
									c-0.03,0.01-0.07,0.03-0.1,0.04l-26.7-4.41l-12.13-2l-14.89-2.46l0.21-6.39l0.41-12.35l26.2,4.37V165.75z"/>
								<path class="st132" d="M1362.23,230.93c-6.07,2.72-12.27,5.45-15.69,6.81l0.3-17.46l0.02-0.01l15.4-5.65l14.86,2.36v7.19
									C1374.27,225.49,1368.32,228.2,1362.23,230.93"/>
								<path class="st138" d="M1349.58,194.12l0.4-5.74l0.26-3.82l26.7,4.41l0.09,0.01c-0.29,7.21-0.58,14.51-0.76,18.8l-0.02,0.01
									l-27.24-5.45L1349.58,194.12z"/>
								<polygon class="st138" points="1350.8,147.06 1324.91,143.58 1341.37,139.83 1366.29,143.1 1366.29,143.15 1350.83,147.07
																"/>
								<polygon class="st134" points="1350.83,147.07 1366.29,143.15 1365.38,161.63 1365.4,161.63 1350.06,165.74 1350.04,165.74
									1350.79,147.08 							"/>
								<polygon class="st139" points="1346.84,220.27 1322.35,215.42 1337.13,210.62 1362.26,214.62 1346.86,220.28 							"/>
								<path class="st132" d="M1360.88,258.91l-0.26,6.49l-14.65,7.66c-0.01,0-0.03-0.01-0.04-0.01l0.3-17.5L1360.88,258.91z"/>
								<polygon class="st136" points="1345.97,273.06 1360.62,265.4 1359.97,282.03 1328.87,298.99 1328.38,298.87 1328.38,282.26
									1328.43,282.23 1345.93,273.08 							"/>
								<polygon class="st138" points="1350.79,147.07 1350.04,165.73 1323.83,161.37 1324.42,143.69 1324.91,143.58 1350.8,147.06
																"/>
								<polygon class="st140" points="1350.06,165.74 1350.04,165.75 1350.04,165.74 							"/>
								<polygon class="st141" points="1349.98,188.38 1349.58,194.12 1337.75,192.64 1337.77,192.34 1349.88,188.37 							"/>
								<path class="st133" d="M1346.84,220.28l-0.3,17.46c-0.22,0.09-0.42,0.17-0.62,0.25l-24.42-5.49l0.56-16.98l0.29-0.1
									L1346.84,220.28L1346.84,220.28z"/>
								<polygon class="st137" points="1345.92,237.99 1346.53,238.13 1346.24,255.55 1320.93,249.75 1321.5,232.5 							"/>
								<path class="st133" d="M1346.24,255.55l-0.3,17.51c-4.49-1.13-15.17-3.75-25.59-6.29l0.04-0.14l0.55-16.88L1346.24,255.55z"
									/>
								<path class="st137" d="M1311.63,273.17l-4.81-1.26l12.91-5.27l0.01-0.02c0.2,0.05,0.4,0.1,0.61,0.15
									c10.42,2.54,21.1,5.16,25.59,6.29v0.03l-17.5,9.15l-0.06-0.02l-16.75-4.68V273.17L1311.63,273.17z"/>
								<polygon class="st132" points="1338.11,182.56 1337.77,192.34 1322.7,197.28 1322.66,197.27 1323.22,180.1 							"/>
								<polygon class="st134" points="1337.75,192.64 1337.12,210.62 1322.35,215.42 1322.06,215.36 1322.66,197.29 1322.7,197.28
									1337.77,192.34 							"/>
								<polygon class="st137" points="1328.38,282.26 1328.38,298.87 1307.05,293.5 1311.63,291.03 1311.63,277.53 1328.38,282.21
																"/>
								<polygon class="st133" points="1323.43,173.71 1323.22,180.1 1298.8,176.07 1313.49,172.24 1323.4,173.71 							"/>
								<polygon class="st133" points="1323.22,180.1 1322.66,197.28 1298.04,193.79 1298.35,176.19 1298.8,176.07 							"/>
								<polygon class="st142" points="1322.7,197.28 1322.65,197.29 1322.65,197.27 							"/>
								<polygon class="st138" points="1322.66,197.3 1322.06,215.37 1297.75,210.55 1298.04,193.79 1322.66,197.28 							"/>
								<polygon class="st137" points="1322.05,215.52 1321.5,232.5 1297.47,227.1 1297.75,210.55 1322.06,215.36 							"/>
								<polygon class="st137" points="1321.5,232.5 1320.93,249.75 1297.17,244.3 1297.47,227.1 							"/>
								<path class="st138" d="M1320.93,249.75l-0.56,16.88l-0.03,0.14c-0.2-0.05-0.41-0.1-0.61-0.15
									c-9.71-2.36-19.07-4.64-22.85-5.56v0l0.29-16.75L1320.93,249.75z"/>
								<path class="st138" d="M1296.88,261.05c3.78,0.92,13.15,3.2,22.85,5.56l-0.01,0.02l-12.91,5.27l-23.9-6.28L1296.88,261.05
									L1296.88,261.05L1296.88,261.05L1296.88,261.05z"/>
								<path class="st132" d="M1292.67,282.72l18.96-9.55v4.36v13.5l-4.57,2.47l-14.3,7.73c-0.04-0.01-0.09-0.02-0.13-0.04v-18.45
									L1292.67,282.72z"/>
								<polygon class="st143" points="1292.63,282.71 1240.88,268.36 1240.88,268.35 1260.45,259.72 1282.92,265.62 1306.82,271.9
									1311.63,273.16 1311.63,273.17 1292.67,282.72 							"/>
								<path class="st133" d="M1292.63,282.74v18.45c-1.07-0.31-2.67-0.77-4.65-1.35c-5.56-1.62-14.16-4.13-22.6-6.6
									c-10.38-3.04-20.53-6.04-24.5-7.28v-17.6l51.75,14.35V282.74z"/>
								<path class="st134" d="M1287.97,299.84l-22.2,11.53l-0.4-0.12v-18.01C1273.81,295.71,1282.41,298.22,1287.97,299.84"/>
								<path class="st138" d="M1265.38,293.24v18.01l-24.5-7.12v-18.17C1244.85,287.2,1254.99,290.2,1265.38,293.24"/>
							</g>
						</g>
					</g>
					<polyline class="st144" points="1324.63,137.38 1324.42,143.52 1324.42,143.7 1323.83,161.37 1323.43,173.72 1323.22,180.1
						1322.66,197.27 1322.66,197.29 1322.06,215.36 1322.05,215.52 1321.5,232.5 1320.93,249.75 1320.38,266.63 				"/>
					<g class="st129">
						<defs>
							<rect id="SVGID_99_" x="1228" y="129" width="200" height="193"/>
						</defs>
						<clipPath id="SVGID_100_">
							<use xlink:href="#SVGID_99_"  style="overflow:visible;"/>
						</clipPath>
						<path class="st145" d="M1377.88,167.63c0,0.11-0.04,1.11-0.1,2.73v0c-0.15,3.83-0.44,11.15-0.74,18.57c0,0.02,0,0.04,0,0.05
							c-0.29,7.21-0.58,14.51-0.76,18.8v0.01c-0.1,2.37-0.16,3.82-0.16,3.82"/>
						<polyline class="st145" points="1405.38,175.88 1405.24,178.22 1405.23,178.29 1404.23,195.56 1403.22,212.91 1403.13,214.63
												"/>
						<polyline class="st145" points="1391.38,199.88 1391.3,201.22 1390.24,219 1390.23,219.07 1390.13,220.88 					"/>
						<polyline class="st145" points="1416.63,240.63 1416.47,242.96 1416.46,243.15 1415.37,260.14 1415.13,263.88 					"/>
						<polyline class="st145" points="1403.13,248.38 1402.96,250.81 1402.96,250.84 1401.81,268.29 1401.81,268.31 1401.63,271.13
												"/>
						<polyline class="st145" points="1346.88,218.38 1346.84,220.27 1346.84,220.29 1346.54,237.74 1346.54,238.13 1346.23,255.55
							1345.93,273.05 1345.93,273.08 1345.88,276.38 					"/>
						<polyline class="st145" points="1360.88,258.88 1360.88,258.9 1360.62,265.4 1359.97,282.03 1359.88,284.38 					"/>
						<polyline class="st145" points="1328.38,279.63 1328.38,282.21 1328.38,282.26 1328.38,298.87 1328.38,299.26 1328.38,301.63
												"/>
						<polyline class="st145" points="1311.63,271.13 1311.63,273.17 1311.63,273.17 1311.63,277.53 1311.63,291.03 1311.63,292.88
												"/>
						<polyline class="st145" points="1292.63,279.63 1292.63,282.71 1292.63,282.74 1292.63,301.19 1292.63,301.3 1292.63,305.13
												"/>
						<polyline class="st145" points="1240.88,265.63 1240.88,268.35 1240.88,268.36 1240.88,285.96 1240.88,304.13 1240.88,308.38
												"/>
						<polyline class="st145" points="1265.38,290.63 1265.38,293.24 1265.38,311.25 1265.38,311.58 1265.38,314.13 					"/>
						<line class="st145" x1="1296.88" y1="261.05" x2="1296.88" y2="261.25"/>
						<polyline class="st145" points="1298.38,174.63 1298.35,176 1298.35,176.19 1298.04,193.79 1297.75,210.55 1297.47,227.1
							1297.17,244.3 1296.88,261.05 					"/>
						<polyline class="st145" points="1350.88,145.13 1350.8,147.06 1350.8,147.08 1350.04,165.74 1350.04,165.75 1349.63,175.88
												"/>
						<polyline class="st145" points="1365.38,161.63 1366.29,143.15 1366.29,143.1 1366.38,141.38 					"/>
						<polyline class="st145" points="1350.38,182.63 1350.24,184.57 1349.98,188.38 1349.58,194.12 1349.02,202.35 1348.88,204.38
												"/>
						<polyline class="st145" points="1392.88,164.63 1392.84,165.65 1392.84,165.68 1392.44,176.64 1392.21,183.15 1392.13,185.63
												"/>
						<polyline class="st145" points="1338.13,182.13 1338.11,182.56 1337.77,192.34 1337.76,192.64 1337.13,210.63 					"/>
						<polyline class="st145" points="1377.13,216.38 1377.13,216.99 1377.13,224.18 1377.13,226.13 					"/>
						<polyline class="st145" points="1259.13,259.38 1260.45,259.72 1282.92,265.63 1306.82,271.9 1311.63,273.17 1313.38,273.63
												"/>
						<polyline class="st145" points="1239.13,267.88 1240.86,268.36 1240.88,268.36 1292.63,282.71 1292.67,282.72 1294.13,283.13
												"/>
						<polyline class="st145" points="1311.63,273.17 1292.67,282.72 1292.63,282.74 1289.88,284.12 					"/>
						<polyline class="st145" points="1262.38,258.88 1260.45,259.72 1240.88,268.35 1240.86,268.36 1239.13,269.13 					"/>
						<path class="st145" d="M1239.13,285.38c0.07,0.05,0.69,0.26,1.75,0.58c3.97,1.24,14.12,4.24,24.5,7.28
							c8.44,2.47,17.04,4.98,22.6,6.6c1.98,0.58,3.58,1.04,4.65,1.35c0.04,0.01,0.08,0.02,0.13,0.04c0.89,0.26,1.37,0.4,1.37,0.4"/>
						<polyline class="st145" points="1312.38,290.63 1311.63,291.03 1307.05,293.5 1292.75,301.23 1292.63,301.3 1290.63,302.38
												"/>
						<polyline class="st145" points="1287.97,299.84 1265.78,311.37 1265.38,311.58 1262.88,312.87 					"/>
						<polyline class="st145" points="1239.13,303.63 1240.88,304.13 1265.38,311.25 1265.78,311.37 1268.38,312.13 					"/>
						<polyline class="st145" points="1307.05,293.5 1328.38,298.87 1328.87,298.99 1332.38,299.88 					"/>
						<polyline class="st145" points="1361.63,281.13 1359.97,282.03 1328.87,298.99 1328.38,299.26 1325.88,300.63 					"/>
						<polyline class="st145" points="1361.63,264.88 1360.62,265.4 1345.97,273.06 1345.93,273.08 1328.43,282.23 1328.38,282.26
							1323.38,284.88 					"/>
						<polyline class="st145" points="1311.63,277.53 1328.38,282.21 1328.43,282.23 1331.63,283.12 					"/>
						<path class="st145" d="M1296.87,261.05c-1.12-0.27-1.75-0.42-1.75-0.42"/>
						<path class="st145" d="M1348.13,273.63c-0.06-0.03-0.83-0.23-2.16-0.57c-0.01,0-0.03-0.01-0.04-0.01
							c-4.49-1.13-15.17-3.75-25.59-6.29c-0.2-0.05-0.41-0.1-0.61-0.15c-9.71-2.36-19.08-4.64-22.86-5.56v0h0"/>
						<polyline class="st145" points="1296.88,261.05 1296.87,261.05 1282.92,265.63 					"/>
						<polyline class="st145" points="1404.38,268.88 1401.84,268.29 1401.81,268.29 1360.88,258.9 1346.23,255.55 1320.93,249.75
							1297.17,244.3 1293.13,243.38 					"/>
						<polyline class="st145" points="1404.38,251.13 1403,250.82 1402.96,250.81 1346.54,238.13 1345.92,237.99 1321.5,232.5
							1297.47,227.1 1293.13,226.13 					"/>
						<path class="st145" d="M1417.63,243.38c-0.06,0-0.46-0.08-1.16-0.23c-0.07-0.01-0.15-0.03-0.23-0.05
							c-7.85-1.67-46.29-10.41-54.01-12.17c-0.87-0.2-1.35-0.31-1.35-0.31"/>
						<path class="st145" d="M1343.88,238.63c0.1,0.07,0.84-0.17,2.05-0.63c0.19-0.08,0.4-0.16,0.62-0.25
							c3.42-1.36,9.62-4.09,15.68-6.81c6.09-2.73,12.05-5.45,14.9-6.75c1.11-0.51,1.75-0.8,1.75-0.8"/>
						<polyline class="st145" points="1296.88,210.38 1297.75,210.55 1322.06,215.37 1322.35,215.42 1346.84,220.27 1346.86,220.28
							1349.88,220.88 					"/>
						<polyline class="st145" points="1363.63,214.13 1362.27,214.63 1346.86,220.28 1346.84,220.29 1343.88,221.38 					"/>
						<polyline class="st145" points="1392.13,219.38 1390.23,219.07 1390.12,219.06 1377.13,216.99 1362.27,214.63 1337.13,210.63
							1322.35,215.42 1322.06,215.52 1317.88,216.88 					"/>
						<polyline class="st145" points="1374.38,208.63 1376.26,207.8 1376.28,207.79 1391.3,201.22 1404.23,195.56 1406.38,194.63
												"/>
						<polyline class="st145" points="1297.63,175.88 1298.35,176 1298.8,176.07 1323.22,180.1 1338.11,182.56 1350.24,184.57
							1376.94,188.98 1377.04,188.99 1380.88,189.63 					"/>
						<path class="st145" d="M1406.88,177.63c-0.03,0-0.63,0.22-1.64,0.59c-0.04,0.01-0.09,0.03-0.13,0.05
							c-2.56,0.96-7.56,2.86-12.9,4.88c-5.48,2.09-11.32,4.32-15.18,5.79c-0.03,0.02-0.06,0.03-0.1,0.04
							c-2.63,1.01-4.31,1.65-4.31,1.65"/>
						<polyline class="st145" points="1296.88,193.63 1298.04,193.79 1322.66,197.27 1322.7,197.28 1325.13,197.63 					"/>
						<polyline class="st145" points="1320.13,198.13 1322.66,197.29 1322.7,197.28 1337.77,192.34 1349.88,188.38 					"/>
						<polyline class="st145" points="1349.63,194.13 1349.58,194.12 1337.76,192.64 1337.63,192.63 					"/>
						<polyline class="st145" points="1322.38,161.13 1323.83,161.37 1350.04,165.74 1350.06,165.74 1377.78,170.36 1377.78,170.36
							1380.88,170.88 					"/>
						<polyline class="st145" points="1394.63,165.13 1392.92,165.66 1392.84,165.68 1377.78,170.36 1377.78,170.36 1376.13,170.88
												"/>
						<polyline class="st145" points="1348.63,166.13 1350.04,165.75 1350.06,165.74 1365.4,161.63 1365.49,161.61 1367.38,161.13
												"/>
						<polyline class="st145" points="1365.38,161.63 1365.4,161.63 1392.84,165.65 1392.92,165.66 1396.13,166.13 					"/>
						<polyline class="st145" points="1323.38,143.38 1324.42,143.52 1324.91,143.58 1350.8,147.06 1350.83,147.07 1353.13,147.38
												"/>
						<polyline class="st145" points="1368.38,143.38 1366.29,143.1 1341.36,139.83 1337.88,139.38 					"/>
						<polyline class="st145" points="1366.38,143.13 1366.29,143.15 1350.83,147.07 1350.8,147.08 1348.63,147.63 					"/>
						<polyline class="st145" points="1323.63,143.88 1324.42,143.7 1324.91,143.58 1341.36,139.83 1343.38,139.38 					"/>
						<polyline class="st145" points="1323.4,173.71 1313.49,172.24 1309.38,171.62 					"/>
						<polyline class="st145" points="1297.63,176.38 1298.35,176.19 1298.8,176.07 1313.48,172.24 1314.88,171.88 					"/>
						<polyline class="st145" points="1392.38,176.63 1392.44,176.64 1405.11,178.27 1405.23,178.29 1407.88,178.63 					"/>
						<polyline class="st145" points="1404.38,212.38 1403.22,212.91 1390.24,219 1390.12,219.06 1388.38,219.88 					"/>
						<path class="st145" d="M1417.13,242.63c-0.03,0-0.26,0.12-0.65,0.34c-0.07,0.04-0.16,0.09-0.24,0.13
							c-2.59,1.46-10.12,5.88-13.23,7.72c-0.01,0.01-0.03,0.01-0.04,0.02c-0.83,0.49-1.34,0.79-1.34,0.79"/>
						<polyline class="st145" points="1416.63,259.38 1415.37,260.14 1401.84,268.29 1401.81,268.31 1400.88,268.88 					"/>
						<polyline class="st145" points="1347.88,202.13 1349.02,202.35 1376.26,207.8 1376.28,207.8 1377.88,208.13 					"/>
						<polyline class="st145" points="1319.73,266.64 1306.82,271.9 1306.55,272.01 					"/>
					</g>
				</g>
			</g>
			<!-- <g id="BIPoC_x5F_Schrift">
				<rect id="Rahmen_15_" x="1334.5" y="311.5" class="st20" width="90" height="43"/>
				<rect id="Rahmen_14_" x="1331.5" y="196.5" class="st20" width="99" height="43"/>
				<rect id="Rahmen_13_" x="1332.5" y="251.5" class="st20" width="90" height="43"/>
				<text transform="matrix(1 0 0 1 1338.5757 229.9397)"><tspan x="0" y="0" class="st21 st22">{{ site.data.map.bipoc.one }}</tspan><tspan x="0" y="57.6" class="st21 st22">{{ site.data.map.bipoc.two }}</tspan><tspan x="0" y="115.2" class="st21 st22">{{ site.data.map.bipoc.three }}</tspan></text>
			</g> -->
		</g>
</svg>
