<svg version="1.1" xmlns="http://www.w3.org/2000/svg" xmlns:xlink="http://www.w3.org/1999/xlink"
	width="276.1" height="349.63"
	viewBox="1002 738 276.1 349.63"
	preserveAspectRatio="none"
	class="map">
		<g id="Open_Space">
			<g>
				<g>
					<defs>
						<rect id="SVGID_171_" x="1002" y="738" width="276.1" height="349.63"/>
					</defs>
					<clipPath id="SVGID_172_">
						<use xlink:href="#SVGID_171_"  style="overflow:visible;"/>
					</clipPath>
					<g class="st228">
						<defs>
							<rect id="SVGID_173_" x="1002" y="738" width="276.1" height="349.63"/>
						</defs>
						<clipPath id="SVGID_174_">
							<use xlink:href="#SVGID_173_"  style="overflow:visible;"/>
						</clipPath>
						<g class="st229">
							<defs>
								<rect id="SVGID_175_" x="1012.15" y="750.86" width="259.85" height="281.96"/>
							</defs>
							<clipPath id="SVGID_176_">
								<use xlink:href="#SVGID_175_"  style="overflow:visible;"/>
							</clipPath>
							<g class="st230">
								<defs>
									<rect id="SVGID_177_" x="1012.15" y="750.86" width="259.85" height="281.96"/>
								</defs>
								<clipPath id="SVGID_178_">
									<use xlink:href="#SVGID_177_"  style="overflow:visible;"/>
								</clipPath>
								<polygon class="st231" points="1272.01,911.46 1263.43,928.61 1240.67,933.62 1248.09,915.97 							"/>
								<polygon class="st232" points="1272.01,911.46 1248.09,915.97 1226.44,896.57 1248.55,892.06 							"/>
								<polygon class="st233" points="1263.43,928.61 1259.81,936.28 1184.47,953.5 1187.64,945.3 1240.67,933.62 							"/>
								<polygon class="st231" points="1259.81,936.28 1255.68,945.02 1255.31,944.85 1181.1,962.21 1184.47,953.5 							"/>
								<polygon class="st234" points="1255.68,945.02 1248.1,961.09 1224.2,966.95 1200.42,972.78 1181.1,977.53 1174.56,979.13
									1181.1,962.21 1255.31,944.85 							"/>
								<polygon class="st232" points="1248.09,915.97 1240.67,933.62 1218.32,914.62 1226.44,896.57 							"/>
								<polygon class="st235" points="1240.67,933.62 1187.64,945.3 1142.31,901.79 1142.98,901.09 1169.21,896.67 1193.96,892.51
									1200.73,875.82 1183.38,860.69 1198.4,873.21 1208.72,881.8 1226.44,896.57 1218.32,914.62 							"/>
								<polygon class="st233" points="1224.2,966.95 1218.32,982.74 1193.06,989.06 1200.42,972.78 							"/>
								<polygon class="st236" points="1211.1,855.97 1211.55,874.02 1198.47,873.12 1198.4,873.21 1183.38,860.69 1182.6,860.01
									1182.77,859.82 1182.68,853.72 							"/>
								<polygon class="st234" points="1211.55,874.02 1208.72,881.8 1198.4,873.21 1198.47,873.12 							"/>
								<polygon class="st233" points="1200.73,875.82 1193.96,892.51 1169.21,896.67 1176.21,879.51 							"/>
								<polygon class="st235" points="1200.73,875.82 1176.21,879.51 1154.35,860.19 1154.36,860.17 1179.36,857.34 1183.38,860.69
																"/>
								<polygon class="st235" points="1200.42,972.78 1193.06,989.06 1181.1,977.53 							"/>
								<polygon class="st233" points="1199.37,803.19 1192.46,820.8 1168.97,823.71 1175.91,805.44 							"/>
								<path class="st233" d="M1199.37,803.19l-23.46,2.26c-14.73-6.89-21.07-23.4-15.79-36.09l24.36-1.35
									C1178.29,785.96,1190.16,797.76,1199.37,803.19"/>
								<polygon class="st233" points="1192.46,820.8 1185.39,838.83 1180.23,839.5 1161.41,841.94 1134.53,845.42 1134.9,844.45
									1141.63,827.1 1168.97,823.71 							"/>
								<polygon class="st235" points="1187.64,945.3 1184.47,953.5 1061.4,835.74 1064.09,826.98 1064.48,827.1 1082.45,844.34
									1102.07,863.17 1142.31,901.79 							"/>
								<polygon class="st235" points="1184.48,768 1160.12,769.35 1138.92,752.21 1162.83,750.86 							"/>
								<polygon class="st232" points="1184.47,953.5 1181.1,962.21 1158.86,940.55 1135.86,918.14 1136.21,911.46 1119.97,899.73
									1118.24,900.99 1118.22,900.96 1059.07,843.34 1061.4,835.74 							"/>
								<polygon class="st236" points="1181.1,962.21 1174.56,979.13 1152.45,958.38 1158.86,940.55 							"/>
								<polygon class="st234" points="1180.23,839.5 1175.01,853.72 1156.59,854.61 1161.48,842.44 1161.41,841.94 							"/>
								<polygon class="st235" points="1179.36,857.34 1154.36,860.17 1156.5,854.84 1156.59,854.61 1175.01,853.72 							"/>
								<polygon class="st234" points="1149.62,883.83 1149.75,883.49 1176.21,879.51 1169.21,896.67 1142.98,901.09 							"/>
								<polygon class="st237" points="1176.21,879.51 1149.75,883.49 1149.62,883.83 1127.51,863.33 1127.64,863.19 1154.36,860.17
									1154.35,860.19 							"/>
								<path class="st235" d="M1175.91,805.44l-6.95,18.27l-23.95-19.61L1126,788.53l-19.28-15.79l6.03-18.73
									c10.45,13.49,21.2,12.37,25.73-0.48c0.15-0.43,0.3-0.87,0.43-1.32l21.2,17.14C1154.84,782.05,1161.18,798.56,1175.91,805.44"
									/>
								<polygon class="st235" points="1168.97,823.71 1141.63,827.1 1120.42,806.8 1145.01,804.1 							"/>
								<polygon class="st231" points="1156.59,854.61 1156.5,854.84 1154.36,860.17 1127.64,863.19 1134.53,845.42 1161.41,841.94
									1161.48,842.44 							"/>
								<polygon class="st236" points="1149.62,883.83 1142.98,901.09 1142.31,901.79 1102.07,863.17 1107.93,845.18 1127.51,863.33
																"/>
								<polygon class="st234" points="1126,788.53 1145.01,804.1 1120.42,806.8 							"/>
								<path class="st233" d="M1142.53,955.22l-1.54,27.32l0.18,0.2l-8.91,6.37v-0.02c-0.11-0.03-16.11-13.42-16.11-13.42
									L1142.53,955.22z"/>
								<polygon class="st235" points="1142.53,955.22 1116.15,975.67 1088.39,997.18 1088.39,997.26 1071.99,984.14 1126.29,943.04
									1126.85,942.63 							"/>
								<polygon class="st235" points="1141.63,827.1 1134.9,844.45 1134.53,845.42 1114.56,824.84 1114.55,824.84 1114.55,824.83
									1120.42,806.8 							"/>
								<path class="st233" d="M1112.75,754.02l25.73-0.48C1133.96,766.39,1123.21,767.5,1112.75,754.02"/>
								<polygon class="st234" points="1136.21,911.46 1135.86,918.14 1134.86,936.73 1126.85,942.63 1111.04,929.92 							"/>
								<polygon class="st236" points="1136.21,911.46 1111.04,929.92 1055.32,970.79 1027.94,990.86 1027.94,990.94 1012.15,977.78
									1118.24,900.99 1119.97,899.73 							"/>
								<polygon class="st232" points="1114.56,824.84 1134.53,845.42 1127.64,863.19 1127.51,863.33 1107.93,845.18 1114.55,824.84
																"/>
								<path class="st236" d="M1132.27,989.08v0.02l-0.56,0.4l-27.07,20.75l-16.25-13l0-0.08l27.76-21.51
									C1116.15,975.67,1132.15,989.06,1132.27,989.08"/>
								<polygon class="st234" points="1132.27,989.11 1131.7,1012.07 1102.83,1032.82 1104.63,1010.26 1131.7,989.51 							"/>
								<polygon class="st232" points="1111.04,929.92 1126.85,942.63 1126.29,943.04 1071.99,984.14 1055.32,970.79 							"/>
								<polygon class="st236" points="1126,788.53 1120.42,806.8 1101.1,790.22 1106.72,772.75 							"/>
								<polygon class="st236" points="1120.42,806.8 1114.55,824.83 1095.61,807.25 1101.1,790.22 							"/>
								<polygon class="st231" points="1114.55,824.83 1114.55,824.84 1114.54,824.84 1088.42,827.1 1069.45,809.51 1095.61,807.25
																"/>
								<polygon class="st233" points="1114.54,824.84 1107.93,845.18 1088.42,827.1 							"/>
								<polygon class="st235" points="1107.93,845.18 1102.07,863.17 1082.45,844.34 1088.42,827.1 							"/>
								<polygon class="st236" points="1104.63,1010.26 1102.83,1032.82 1087.42,1020.19 1088.39,997.26 							"/>
								<polygon class="st232" points="1069.44,809.51 1088.42,827.1 1082.45,844.34 1064.48,827.1 1064.09,826.98 							"/>
								<polygon class="st235" points="1088.39,997.26 1087.42,1020.19 1070.35,1006.2 1071.99,984.14 							"/>
								<polygon class="st235" points="1071.99,984.14 1044.63,1004.85 1027.94,990.94 1027.94,990.86 1055.32,970.79 							"/>
								<polygon class="st233" points="1044.63,1004.85 1071.99,984.14 1070.35,1006.2 1044.63,1027.4 							"/>
								<polygon class="st235" points="1044.63,1004.85 1044.63,1027.4 1028.67,1013.76 1028.67,1013.75 1027.94,990.94 							"/>
								<polygon class="st236" points="1027.94,990.94 1028.67,1013.75 1028.67,1013.76 1027.9,1013.1 1013.5,1000.79
									1012.15,977.78 							"/>
							</g>
						</g>
					</g>
					<polyline class="st238" points="1044.63,1004.85 1027.94,990.94 1012.15,977.78 1118.24,900.99 1119.97,899.73 1136.21,911.46
						1111.04,929.92 1055.32,970.79 1027.94,990.86 1027.94,990.94 1028.67,1013.75 				"/>
					<polyline class="st238" points="1088.39,997.18 1116.15,975.67 1142.53,955.22 1140.99,982.54 				"/>
					<polyline class="st238" points="1141.18,982.74 1132.27,989.11 1131.7,989.51 1104.63,1010.26 1088.39,997.26 1071.99,984.14
						1055.32,970.79 				"/>
					<polyline class="st238" points="1012.15,977.78 1013.5,1000.79 1027.9,1013.1 1028.67,1013.76 1044.63,1027.4 1044.63,1004.85
						1071.99,984.14 1126.29,943.04 1126.85,942.63 1134.86,936.73 1135.86,918.14 1136.21,911.46 				"/>
					<polyline class="st238" points="1044.63,1027.4 1070.35,1006.2 1071.99,984.14 				"/>
					<polyline class="st238" points="1070.35,1006.2 1087.42,1020.19 1102.83,1032.82 				"/>
					<polyline class="st238" points="1088.39,997.18 1088.39,997.26 1087.42,1020.19 				"/>
					<g class="st228">
						<defs>
							<rect id="SVGID_179_" x="1002" y="738" width="276.1" height="349.63"/>
						</defs>
						<clipPath id="SVGID_180_">
							<use xlink:href="#SVGID_179_"  style="overflow:visible;"/>
						</clipPath>
						<path class="st239" d="M1104.63,1010.26l-1.8,22.56l28.87-20.75l0.56-22.96v-0.02c-0.11-0.03-16.11-13.42-16.11-13.42"/>
						<polyline class="st239" points="1142.53,955.22 1126.85,942.63 1111.04,929.92 					"/>
						<polyline class="st239" points="1135.86,918.14 1158.86,940.55 1181.1,962.21 					"/>
						<line class="st239" x1="1059.07" y1="843.34" x2="1118.22" y2="900.96"/>
						<polyline class="st239" points="1061.32,835.67 1061.4,835.74 1184.47,953.5 					"/>
						<polyline class="st239" points="1184.47,953.5 1259.81,936.28 1259.82,936.27 					"/>
						<line class="st239" x1="1181.1" y1="962.21" x2="1255.31" y2="944.85"/>
						<polyline class="st239" points="1158.86,940.55 1152.45,958.38 1174.56,979.13 					"/>
						<polyline class="st239" points="1181.1,977.53 1193.06,989.06 1200.42,972.78 					"/>
						<polyline class="st239" points="1224.2,966.95 1218.32,982.74 1193.06,989.06 					"/>
						<polyline class="st239" points="1263.43,928.61 1272.01,911.46 1248.09,915.97 1240.67,933.62 1218.32,914.62 1226.44,896.57
							1248.55,892.06 1272.01,911.46 					"/>
						<polygon class="st239" points="1142.98,901.09 1149.62,883.83 1149.75,883.49 1176.21,879.51 1200.73,875.82 1193.96,892.51
							1169.21,896.67 					"/>
						<polyline class="st239" points="1187.64,945.3 1184.47,953.5 1181.1,962.21 1174.56,979.13 1181.1,977.53 1200.42,972.78
							1224.2,966.95 1248.09,961.09 1255.68,945.02 1259.81,936.28 1263.43,928.61 1240.67,933.62 1187.64,945.3 					"/>
						<polyline class="st239" points="1064.48,827.1 1082.45,844.34 1102.07,863.17 1142.31,901.79 1187.64,945.3 					"/>
						<polyline class="st239" points="1149.75,883.94 1149.62,883.83 1127.51,863.33 1107.93,845.18 1088.42,827.1 1069.44,809.51
							1064.09,826.98 1061.4,835.74 1059.07,843.34 					"/>
						<line class="st239" x1="1114.55" y1="824.84" x2="1114.56" y2="824.84"/>
						<polyline class="st239" points="1069.44,809.51 1095.61,807.25 1114.55,824.83 					"/>
						<polyline class="st239" points="1102.07,863.17 1107.93,845.18 1114.54,824.84 1114.55,824.84 1114.55,824.83 1120.42,806.8
							1141.63,827.1 1134.9,844.45 1134.53,845.42 1127.64,863.19 1154.36,860.17 1179.36,857.34 1179.52,857.33 1182.6,860.01
							1183.38,860.69 1200.73,875.82 					"/>
						<polyline class="st239" points="1141.63,827.1 1168.97,823.71 1192.46,820.8 1192.61,820.78 					"/>
						<path class="st239" d="M1095.61,807.25l5.49-17.03l5.63-17.47l6.03-18.73c10.45,13.49,21.2,12.37,25.73-0.48
							c0.15-0.43,0.3-0.87,0.43-1.32"/>
						<polyline class="st239" points="1114.56,824.84 1134.53,845.42 1161.41,841.94 1180.23,839.5 1185.39,838.83 1192.46,820.8
							1199.37,803.19 1175.91,805.44 1168.97,823.71 1145.01,804.1 1126,788.53 1106.72,772.75 1106.44,772.51 					"/>
						<polygon class="st239" points="1138.92,752.21 1160.12,769.35 1184.48,768 1162.83,750.86 					"/>
						<path class="st239" d="M1175.91,805.44c-14.73-6.89-21.07-23.4-15.79-36.09"/>
						<path class="st239" d="M1184.48,768c-6.2,17.96,5.68,29.76,14.89,35.19"/>
						<line class="st240" x1="1112.75" y1="754.02" x2="1138.49" y2="753.53"/>
						<polyline class="st239" points="1101.1,790.22 1120.42,806.8 1145.01,804.1 					"/>
						<line class="st239" x1="1126" y1="788.53" x2="1120.42" y2="806.8"/>
						<polyline class="st239" points="1082.45,844.34 1088.42,827.1 1114.54,824.84 1114.56,824.84 					"/>
						<polyline class="st239" points="1169.21,896.67 1176.21,879.51 1154.35,860.19 1154.36,860.17 1156.5,854.84 1156.59,854.61
							1161.48,842.44 					"/>
						<polyline class="st239" points="1180.23,839.5 1175.01,853.72 1156.59,854.61 1156.51,854.62 					"/>
						<polyline class="st239" points="1248.09,915.97 1226.44,896.57 1208.72,881.8 1198.4,873.21 1183.38,860.69 1179.36,857.34
							1175.01,853.72 					"/>
						<polyline class="st239" points="1182.77,859.82 1182.68,853.72 1211.1,855.97 1211.55,874.02 1198.47,873.12 					"/>
						<line class="st239" x1="1208.72" y1="881.8" x2="1211.55" y2="874.02"/>
					</g>
				</g>
			</g>
			<!-- <g id="Open_Space_x5F_Schrift">
				<rect id="Rahmen_1_" x="1156.5" y="934.5" class="st20" width="92" height="43"/>
				<rect id="Rahmen" x="1155.62" y="876.08" class="st241" width="77.38" height="43"/>
				<text transform="matrix(1 0 0 1 1160.6768 910.816)"><tspan x="0" y="0" class="st21 st22">{{ site.data.map.open.one }}</tspan><tspan x="0" y="57.6" class="st21 st22">{{ site.data.map.open.two }}</tspan></text>
			</g> -->
		</g>
</svg>
